…
Now tidy the result.

``` r
df = df%>%
  separate(value, into = c("arm", "number"), sep = "_") %>%
  mutate(number = substr(number, 1, 2)) %>%
  unnest %>%
  gather(key = week, value = data, week_1:week_8) %>%
  mutate(week = substr(week, 6, 6)) %>%
  select(arm, number, week, data)

df
```

    ## # A tibble: 160 x 4
    ##    arm   number week   data
    ##    <chr> <chr>  <chr> <dbl>
    ##  1 con   01     1      0.2 
    ##  2 con   02     1      1.13
    ##  3 con   03     1      1.77
    ##  4 con   04     1      1.04
    ##  5 con   05     1      0.47
    ##  6 con   06     1      2.37
    ##  7 con   07     1      0.03
    ##  8 con   08     1     -0.08
    ##  9 con   09     1      0.08
    ## 10 con   10     1      2.14
    ## # ... with 150 more rows
…
Problem 2
---------

``` r
homicide_url = "https://raw.githubusercontent.com/washingtonpost/data-homicides/master/homicide-data.csv"

homicide_data = 
  read.csv(url(homicide_url), stringsAsFactors = FALSE) %>% 
  janitor::clean_names() %>% 
  as_tibble()

homicide_data
```

    ## # A tibble: 52,179 x 12
    ##    uid   reported_date victim_last victim_first victim_race victim_age
    ##    <chr>         <int> <chr>       <chr>        <chr>       <chr>     
    ##  1 Alb-~      20100504 GARCIA      JUAN         Hispanic    78        
    ##  2 Alb-~      20100216 MONTOYA     CAMERON      Hispanic    17        
    ##  3 Alb-~      20100601 SATTERFIELD VIVIANA      White       15        
    ##  4 Alb-~      20100101 MENDIOLA    CARLOS       Hispanic    32        
    ##  5 Alb-~      20100102 MULA        VIVIAN       White       72        
    ##  6 Alb-~      20100126 BOOK        GERALDINE    White       91        
    ##  7 Alb-~      20100127 MALDONADO   DAVID        Hispanic    52        
    ##  8 Alb-~      20100127 MALDONADO   CONNIE       Hispanic    52        
    ##  9 Alb-~      20100130 MARTIN-LEY~ GUSTAVO      White       56        
    ## 10 Alb-~      20100210 HERRERA     ISRAEL       Hispanic    43        
    ## # ... with 52,169 more rows, and 6 more variables: victim_sex <chr>,
    ## #   city <chr>, state <chr>, lat <dbl>, lon <chr>, disposition <chr>
The raw dataset has 52179 rows of 12 variables, including uid, reported date, last and first name, race, sex and age of the victims, city, state, latitude, longitude and disposition. All of the dates are from 2007 to 2017. There are four wrong data in the raw dataset. I change these data to what they should be.

Now create a city\_state variable and then summarize within cities to obtain the total number of homicides and the number of unsolved homicides.

``` r
homicide_data = homicide_data %>%
  mutate(city_state = str_c(city, ", ", state)) %>%
  group_by(city_state) %>%
  summarize(total = n(), 
            unsolved = sum(disposition == "Closed without arrest" | disposition == "Open/No arrest"))

homicide_data
```

    ## # A tibble: 50 x 3
    ##    city_state      total unsolved
    ##    <chr>           <int>    <int>
    ##  1 Albuquerque, NM   378      146
    ##  2 Atlanta, GA       973      373
    ##  3 Baltimore, MD    2827     1825
    ##  4 Baton Rouge, LA   424      196
    ##  5 Birmingham, AL    800      347
    ##  6 Boston, MA        614      310
    ##  7 Buffalo, NY       521      319
    ##  8 Charlotte, NC     687      206
    ##  9 Chicago, IL      5535     4073
    ## 10 Cincinnati, OH    694      309
    ## # ... with 40 more rows
…
